{"data":[{"id":1771,"documentId":"lxbgzwqcopo7pt5lx8b56so9","title":"Melihat Bunga Sakura di Tokyo Jepang","description":"Lorem ipsum dolor sit amet, consectetur adipiscing elit. Nullam aliquet sollicitudin risus a commodo. Quisque venenatis laoreet quam ut sodales. Fusce quis elementum sem. Nunc facilisis, lectus sit amet iaculis rutrum, orci tellus efficitur mauris, vel pellentesque quam odio id odio. Praesent at sapien faucibus, posuere purus ut, efficitur eros. Sed euismod sagittis eros, vitae vehicula orci placerat at. Nulla commodo arcu eget urna lacinia sodales. Mauris posuere tortor turpis, nec lobortis lacus volutpat ac. Mauris ultrices sagittis eros, vel suscipit ex aliquet viverra. Nunc facilisis tortor id purus sollicitudin vestibulum. Vivamus eget lectus suscipit, pretium mauris vitae, ultricies odio. Vivamus faucibus enim ut faucibus faucibus. Sed egestas pulvinar elit, ut ultrices nibh placerat in. Curabitur id velit enim.\n\nNulla auctor lacus felis, eu imperdiet ligula lacinia nec. Cras ut sapien sed diam laoreet vulputate. Nunc at nunc ante. Ut euismod risus erat. Integer id ante vel nisl semper sollicitudin sed ac enim. Suspendisse accumsan sed elit sit amet faucibus. Sed eget suscipit augue. In ut aliquam lorem. Donec auctor tortor placerat odio porttitor mattis. Curabitur posuere lectus non pharetra aliquet. Suspendisse gravida arcu sit amet ipsum dignissim, id tincidunt turpis placerat. Aenean feugiat metus eget ex iaculis, vitae consequat nibh elementum. Suspendisse potenti. Pellentesque sit amet enim ac metus tristique convallis. Praesent eget ultrices lacus, a feugiat diam. Interdum et malesuada fames ac ante ipsum primis in faucibus.\n\nCras sit amet sollicitudin lectus, vel tristique lectus. In lobortis elementum est, id cursus tellus fermentum sed. Sed malesuada ut tortor at efficitur. Praesent tincidunt finibus lectus quis maximus. Cras ligula quam, ultricies ut efficitur eget, viverra non lectus. Aenean justo augue, congue in eleifend quis, rutrum at enim. Morbi non feugiat nunc. Pellentesque pellentesque ligula vel nisl fringilla convallis. Ut convallis ipsum in pretium efficitur.\n\nMauris vehicula nec turpis eu condimentum. Duis convallis turpis non lectus scelerisque, et pretium felis rutrum. Nulla sed magna in dolor dignissim dictum quis quis nunc. Mauris dictum sed ipsum a eleifend. In ante urna, tincidunt vitae tempus eget, egestas id massa. Pellentesque id metus libero. Suspendisse metus urna, pellentesque fermentum varius ut, viverra eget dolor. Nulla hendrerit sollicitudin massa nec vehicula. Aenean convallis eros mattis, pretium eros facilisis, consequat purus. Etiam ut ex dolor. Phasellus vitae velit porttitor, consequat justo non, condimentum leo. Pellentesque non urna ex. Maecenas lobortis mi in massa interdum, quis iaculis leo malesuada.\n\nPhasellus rhoncus felis quis nunc tempus, sed vulputate est tempor. Nunc eleifend sem ac velit interdum pellentesque. Proin imperdiet velit eu libero porttitor, eu dapibus dolor pulvinar. Donec gravida lorem sit amet suscipit feugiat. Mauris eu sem ut turpis accumsan posuere sit amet sit amet enim. Nullam ut massa odio. Vivamus ac nunc eget ligula aliquam mollis. Maecenas euismod velit imperdiet, pulvinar magna ac, pharetra ipsum. Sed consectetur, urna quis dapibus suscipit, purus tortor fringilla orci, ut efficitur nisl enim quis enim.\n\nMaecenas nec dignissim risus. Duis quis turpis venenatis, venenatis ante a, porta nunc. Nam et nulla dictum, egestas ex sed, auctor odio. Orci varius natoque penatibus et magnis dis parturient montes, nascetur ridiculus mus. Etiam tortor diam, pharetra a feugiat vitae, maximus vel mauris. Nam convallis elit vel rhoncus lobortis. Aenean finibus, arcu et porta posuere, sapien dui condimentum diam, sed iaculis magna felis suscipit libero. Ut sed nisi sit amet ipsum iaculis dictum. Phasellus in sapien tortor. Sed ac lacus eget orci volutpat rutrum. Nunc at felis tincidunt, laoreet mauris nec, vestibulum justo. Maecenas posuere ligula vel eleifend egestas. Maecenas sodales tincidunt metus in mattis. Cras congue nulla quis fringilla aliquam.","cover_image_url":"https://images.unsplash.com/photo-1659954889145-609f1a981698?q=80&w=3431&auto=format&fit=crop&ixlib=rb-4.1.0&ixid=M3wxMjA3fDB8MHxwaG90by1wYWdlfHx8fGVufDB8fHx8fA%3D%3D","createdAt":"2025-09-23T10:39:40.777Z","updatedAt":"2025-09-23T13:04:47.705Z","publishedAt":"2025-09-23T13:04:48.106Z","locale":null},{"id":1897,"documentId":"shb84qcmb4209nrz4nv2sxrw","title":"sample 15","description":"updated nih bos","cover_image_url":"https://res.cloudinary.com/yeremia-alfa-dio/image/upload/v1765871385/Kelompok_3_II_Sejarah_Singkat_yang_Penting_4_f2e896fc4a.png","createdAt":"2025-12-16T07:49:49.402Z","updatedAt":"2025-12-16T07:50:17.208Z","publishedAt":"2025-12-16T07:50:17.490Z","locale":null},{"id":1798,"documentId":"fpbc9j686o893cugppsivts2","title":"test123123","description":"test123123","cover_image_url":"https://media.tenor.com/NRIgdrNk7w8AAAAi/bocchi-the-rock-btr.gif","createdAt":"2025-11-05T05:06:28.478Z","updatedAt":"2025-11-05T05:06:28.478Z","publishedAt":"2025-11-05T05:06:28.828Z","locale":null},{"id":1809,"documentId":"enuyyml1gizoneufyu3wym66","title":"Explore Raja Ampat #2","description":"Deskripsi dari eksplorasi Raja Ampat #2","cover_image_url":"https://res.cloudinary.com/yeremia-alfa-dio/image/upload/v1761335967/64702bde005eb_b93f3a5123.jpg","createdAt":"2025-12-08T08:08:03.362Z","updatedAt":"2025-12-08T08:24:15.291Z","publishedAt":"2025-12-08T08:24:15.569Z","locale":null},{"id":1750,"documentId":"zra15c5fjive35djqoj9yuk1","title":"Danau Toba","description":"Tekun berkarya, hidup sejahtera, mulia berbudaya\nSumatera Utara adalah sebuah provinsi yang terletak di pulau Sumatera, Indonesia. Provinsi ini memiliki ibu kota yang bernama Medan. Sumatera Utara memiliki luas wilayah sekitar 72.981 kilometer persegi dan terbagi menjadi 25 kabupaten/kota. Sumatera Utara memiliki kekayaan alam yang melimpah, termasuk pegunungan, danau, sungai, serta hutan tropis yang indah. Salah satu ikon provinsi ini adalah Danau Toba yang termasuk dalam 5 destinasi super prioritas.","cover_image_url":"https://regalsprings.co.id/wp-content/uploads/2023/06/image-7-budaya-memukau-danau-toba.jpg","createdAt":"2025-09-03T23:49:21.704Z","updatedAt":"2025-09-13T06:26:35.843Z","publishedAt":"2025-09-13T06:26:36.206Z","locale":null},{"id":1871,"documentId":"jrr9igprzv0dug2hy6g0pnh4","title":"Wisata Ke Jatim","description":"Wisata Ke Jatim","cover_image_url":"https://res.cloudinary.com/yeremia-alfa-dio/image/upload/v1765509831/sejuknya_hamparan_kebun_teh_di_puncak_bogor_1_169_bd5bbb4fe4.jpg","createdAt":"2025-12-12T03:23:52.744Z","updatedAt":"2025-12-12T03:23:52.744Z","publishedAt":"2025-12-12T03:23:52.939Z","locale":null},{"id":1130,"documentId":"advz4il6qh58vckg3r8j6ahh","title":"The Mysteries of the Universe: Exploring the Untouched Beauty of the Galaxy","description":"Amidst the vastness of the cosmos lies an extraordinary beauty beyond the reach of the naked eye. This article invites you on a journey through the breathtaking landscapes of the galaxy—where colossal planets float in silence, glowing nebulae dance in the void, and distant stars whisper secrets of time and creation. From the eerie calm of alien worlds to the radiant chaos of supernovae, we explore the untouched frontiers of space that challenge our imagination and redefine our place in the universe. Discover the wonders that lie beyond our skies—mysteries waiting to be unraveled, stories yet to be told.","cover_image_url":"https://res.cloudinary.com/yeremia-alfa-dio/image/upload/v1747580146/planet_1639870750108_707_6fb7c3169a.jpg","createdAt":"2025-05-18T14:55:48.821Z","updatedAt":"2025-05-18T15:12:55.214Z","publishedAt":"2025-05-18T15:12:55.765Z","locale":null},{"id":1854,"documentId":"govlc6ent16ui71yze0vzti8","title":"Hutan Kalimantan ","description":"Kalimantan adalah pulau terbesar ketiga di dunia, dan dikenal karena keanekaragaman hayatinya yang luar biasa. Keanekaragaman hayati ini mencakup lebih dari 15.000 spesies tumbuhan, lebih dari 600 burung, dan lebih dari 220 mamalia. Selama beberapa dekade terakhir, habitat telah hilang akibat penebangan, pembangunan infrastruktur, pertambangan, dan pertanian. Akibatnya, populasi orang utan menurun drastis. Namun, Kalimantan menampung sekitar tiga perempat populasi orangutan yang tersisa di dunia, dan Kalimantan Timur memiliki beberapa kawasan hutan terpenting yang tersisa.","cover_image_url":"https://res.cloudinary.com/yeremia-alfa-dio/image/upload/v1765488426/sejuknya_hamparan_kebun_teh_di_puncak_bogor_1_169_5fa96a8b9a.jpg","createdAt":"2025-12-11T21:27:08.212Z","updatedAt":"2025-12-12T02:05:55.965Z","publishedAt":"2025-12-12T02:05:56.344Z","locale":null},{"id":1855,"documentId":"ty3k9icgwnks7fbc614vwzx0","title":"Kebun Teh","description":"Kebun Teh Cisarua ini merupakan destinasi utama para wisatawan yang ingin healing sekaligus liburan. Begitu tiba, kamu akan disambut oleh perkebunan teh hijau sejauh mata memandang lengkap dengan pegunungan biru sebagai latarnya. Pemandangan bakal semakin apik ketika kabut turun.\n\nGak hanya menikmati indahnya hamparan daun teh, sejumlah wahana juga bisa kamu coba kalau liburan kesini. Mulai dari tea walk keliling perkebunan, naik kuda, ATV, off road, berkunjung ke pabrik teh, sampai menikmati pemandangan dari ketinggian dengan menggunakan paralayang. Meski mayoritas wahana di sini outdoor, kamu gak bakal cepat lelah.\n\nPasalnya Kebun Teh Cisarua berada di ketinggian 800-1.200 mdpl bikin suhu di sini selalu adem. Bukannya keringatan, malah kamu yang bakal kedinginan!","cover_image_url":"https://res.cloudinary.com/yeremia-alfa-dio/image/upload/v1765505205/sejuknya_hamparan_kebun_teh_di_puncak_bogor_1_169_e72fe9067c.jpg","createdAt":"2025-12-11T15:38:42.395Z","updatedAt":"2025-12-12T02:06:47.412Z","publishedAt":"2025-12-12T02:06:47.683Z","locale":null},{"id":1247,"documentId":"hpjjc7c6vitsi5k0vyn6j5nk","title":"traveling gratis update 1","description":"traveling gratis update 1","cover_image_url":"https://res.cloudinary.com/yeremia-alfa-dio/image/upload/v1748230307/rental_sewa_mobil_jakarta_bandung_assa_rent_c3_19dcaa03b4.jpg","createdAt":"2025-05-25T13:31:32.438Z","updatedAt":"2025-05-26T03:31:51.588Z","publishedAt":"2025-05-26T03:31:52.077Z","locale":null},{"id":1626,"documentId":"p56ceh9g3gyh6zi5c8b3y7ap","title":"lal","description":"lalalalsadasdada","cover_image_url":"https://asset.indonesia.travel/assets/watermark/2023_I_GEDE_LILA_KANTIANA_BALI_ULUN_DANU_BERATAN_171.jpg","createdAt":"2025-08-02T08:57:55.888Z","updatedAt":"2025-08-02T12:44:37.707Z","publishedAt":"2025-08-02T12:44:38.314Z","locale":null},{"id":1634,"documentId":"wi3nmvoczgici0318sr010z5","title":"BEKA TEST","description":"R23R23R","cover_image_url":"https://www.pdf2go.com/assets/blog/how_to_convert_jpg_to_pdf.jpg","createdAt":"2025-08-04T01:55:25.307Z","updatedAt":"2025-08-04T01:55:52.494Z","publishedAt":"2025-08-04T01:55:52.920Z","locale":null},{"id":1858,"documentId":"q0opm9yqjabms85xc60tavtw","title":"Kebun Teh Cisarua Bogor Jabar","description":"Kebun Teh Cisarua ini merupakan destinasi utama para wisatawan yang ingin healing sekaligus liburan. Begitu tiba, kamu akan disambut oleh perkebunan teh hijau sejauh mata memandang lengkap dengan pegunungan biru sebagai latarnya. Pemandangan bakal semakin apik ketika kabut turun.\n\nGak hanya menikmati indahnya hamparan daun teh, sejumlah wahana juga bisa kamu coba kalau liburan kesini. Mulai dari tea walk keliling perkebunan, naik kuda, ATV, off road, berkunjung ke pabrik teh, sampai menikmati pemandangan dari ketinggian dengan menggunakan paralayang. Meski mayoritas wahana di sini outdoor, kamu gak bakal cepat lelah.\n\nPasalnya Kebun Teh Cisarua berada di ketinggian 800-1.200 mdpl bikin suhu di sini selalu adem. Bukannya keringatan, malah kamu yang bakal kedinginan!","cover_image_url":"https://res.cloudinary.com/yeremia-alfa-dio/image/upload/v1765471361/Kebun_Teh_Puncak_Bogor_3397fce5f9.png","createdAt":"2025-12-11T14:11:56.610Z","updatedAt":"2025-12-12T02:16:51.244Z","publishedAt":"2025-12-12T02:16:51.538Z","locale":null},{"id":1375,"documentId":"fmpqoabu6tu4yf6tutc5vp5j","title":"Treking Cisadon uhuy","description":"Bukit Cisadon adalah sebuah bukit yang terletak di kawasan Sentul, Bogor, yang terkenal sebagai jalur trekking dengan pemandangan alam yang indah. Bukit ini menawarkan tantangan medan yang menarik bagi para penggemar hiking, dengan jalur yang menanjak dan pemandangan perbukitan hijau serta hutan lebat.Bukit Cisadon adalah sebuah bukit yang terletak di kawasan Sentul, Bogor, yang terkenal sebagai jalur trekking dengan pemandangan alam yang indah. Bukit ini menawarkan tantangan medan yang menarik bagi para penggemar hiking, dengan jalur yang menanjak dan pemandangan perbukitan hijau serta hutan lebat.Bukit Cisadon adalah sebuah bukit yang terletak di kawasan Sentul, Bogor, yang terkenal sebagai jalur trekking dengan pemandangan alam yang indah. Bukit ini menawarkan tantangan medan yang menarik bagi para penggemar hiking, dengan jalur yang menanjak dan pemandangan perbukitan hijau serta hutan lebat.","cover_image_url":"https://images.pexels.com/photos/1324803/pexels-photo-1324803.jpeg?auto=compress&cs=tinysrgb&dpr=1&w=500","createdAt":"2025-06-14T17:28:21.763Z","updatedAt":"2025-06-15T12:52:36.867Z","publishedAt":"2025-06-15T12:52:37.247Z","locale":null},{"id":1401,"documentId":"ckdpvmf8hprughwarq285e7l","title":"Travel APPUN","description":"asdasdsadasda","cover_image_url":"https://satutravel.com/wp-content/uploads/travel-door-to-door-1.jpg","createdAt":"2025-06-17T13:22:27.576Z","updatedAt":"2025-06-17T13:22:27.576Z","publishedAt":"2025-06-17T13:22:27.872Z","locale":null},{"id":1413,"documentId":"au5ggahoxz104iyxevnv7cmw","title":"Sample Test 13","description":"Sample Description 13","cover_image_url":"https://res.cloudinary.com/yeremia-alfa-dio/image/upload/v1727703810/large_Welcome_Scan_84f3de8212.jpg","createdAt":"2025-06-18T09:43:08.013Z","updatedAt":"2025-06-18T09:43:08.013Z","publishedAt":"2025-06-18T09:43:08.340Z","locale":null},{"id":1425,"documentId":"u4xvjh2w1un9j9kv6xnf0zeu","title":"This is new article","description":"this is the description for the new article","cover_image_url":"https://webasset.b-cdn.net/webprofile/baraya/berita/20240925111754_artikel-travel-bandung-bekasi.jpg","createdAt":"2025-06-18T12:51:37.591Z","updatedAt":"2025-06-18T12:51:37.591Z","publishedAt":"2025-06-18T12:51:37.848Z","locale":null},{"id":1429,"documentId":"za4lbmqwewseyv33su6jowk5","title":"Article sample 2","description":"this is decription for the article","cover_image_url":"https://webasset.b-cdn.net/webprofile/baraya/berita/20240925111754_artikel-travel-bandung-bekasi.jpg","createdAt":"2025-06-18T15:25:04.899Z","updatedAt":"2025-06-18T15:25:04.899Z","publishedAt":"2025-06-18T15:25:05.179Z","locale":null},{"id":1430,"documentId":"z1mwyx4bggjt1qg1keuyoipw","title":"Sample Test 5","description":"Sample Description 2","cover_image_url":"https://res.cloudinary.com/yeremia-alfa-dio/image/upload/v1727703810/large_Welcome_Scan_84f3de8212.jpg","createdAt":"2025-06-15T15:07:16.085Z","updatedAt":"2025-06-20T00:28:29.309Z","publishedAt":"2025-06-20T00:28:29.767Z","locale":null},{"id":1432,"documentId":"g8q3g0y0u1hw5l1h0sdda1rm","title":"test","description":"test","cover_image_url":"https://res.cloudinary.com/yeremia-alfa-dio/image/upload/v1750429700/Exploring_Newest_Svelte_Based_Framework_Svelte_Kit_141e79f4c0.png","createdAt":"2025-06-20T14:28:22.719Z","updatedAt":"2025-06-20T14:28:22.719Z","publishedAt":"2025-06-20T14:28:23.053Z","locale":null},{"id":1601,"documentId":"sugat8zkjyk6xw5bfgz49i35","title":"uu","description":"Sample Descrip","cover_image_url":"https://asset.indonesia.travel/assets/watermark/2023_I_GEDE_LILA_KANTIANA_BALI_ULUN_DANU_BERATAN_171.jpg","createdAt":"2025-07-29T08:10:11.680Z","updatedAt":"2025-08-01T07:01:44.178Z","publishedAt":"2025-08-01T07:01:44.626Z","locale":null},{"id":1362,"documentId":"mruap1hzj2v2g1bv0eoa1qjn","title":"Warjo Mantap","description":"\"Warjo\" adalah singkatan dari \"Warung Ijo\", yang berarti warung makan yang biasanya memiliki ciri khas cat berwarna hijau. Istilah ini sering digunakan untuk menamai warung makan sederhana, terutama di kalangan mahasiswa atau di sekitar kampus, yang menawarkan makanan dengan harga terjangkau. Selain itu, \"Warjo\" juga bisa merujuk pada sebuah nama usaha kuliner, seperti Warjo yang ada di Pangkalpinang. ","cover_image_url":"https://encrypted-tbn0.gstatic.com/images?q=tbn:ANd9GcQu-XeLPgS4VxNFdVYYFhlDM_eUow3KJGxd4Q&s","createdAt":"2025-06-15T04:59:35.579Z","updatedAt":"2025-06-15T04:59:35.579Z","publishedAt":"2025-06-15T04:59:35.791Z","locale":null},{"id":1674,"documentId":"xfhew03r28m7m0ui56i5jkws","title":"Labuan Bajo","description":"Lorem ipsum, atau ringkasnya lipsum, adalah teks standar yang ditempatkan untuk mendemostrasikan elemen grafis atau presentasi visual seperti font, tipogra","cover_image_url":"https://res.cloudinary.com/yeremia-alfa-dio/image/upload/v1756980142/Seruni_Point_Drone_6_scaled_e1741610969338_eb540a7888.jpg","createdAt":"2025-09-04T10:02:25.100Z","updatedAt":"2025-09-04T10:02:25.100Z","publishedAt":"2025-09-04T10:02:25.440Z","locale":null},{"id":1686,"documentId":"i96v56fw7wfzha154quhmdao","title":"My Trip My adventure","description":"Lorem ipsum, atau ringkasnya lipsum, adalah teks standar yang ditempatkan untuk mendemostrasikan elemen grafis atau presentasi visual seperti font, tipogra","cover_image_url":"https://res.cloudinary.com/yeremia-alfa-dio/image/upload/v1753726973/539_200x300_6090d0fb43.jpg","createdAt":"2025-09-04T07:02:41.599Z","updatedAt":"2025-09-04T22:52:38.868Z","publishedAt":"2025-09-04T22:52:39.207Z","locale":null},{"id":1650,"documentId":"l2e56qq5b3le0x9fi1on848b","title":"New Article on Wednesday","description":"Traveling to Bali, often called the \"Island of the Gods,\" is a unique and diverse experience that offers a blend of rich culture, stunning natural beauty, and a wide array of activities to suit every type of traveler. From its spiritual heartland to its vibrant beach towns, Bali is a destination that truly lives up to its reputation.","cover_image_url":"https://tamanmini.com/taman_jelajah_indonesia/wp-content/uploads/2023/09/Anjungan-Bali-scaled.jpg","createdAt":"2025-09-03T01:52:31.160Z","updatedAt":"2025-09-03T01:52:31.160Z","publishedAt":"2025-09-03T01:52:31.624Z","locale":null}],"meta":{"pagination":{"page":1,"pageSize":25,"pageCount":2,"total":27}}}